^C:\NB BACKUP\HOME\상명\2012년\2학기\컴퓨터 그래픽스 기초\실습\EX01\EX01\BITMAP.CPP|C:\NB BACKUP\HOME\상명\2012년\2학기\컴퓨터 그래픽스 기초\실습\EX01\EX01\BITMAP2.CPP|C:\NB BACKUP\HOME\상명\2012년\2학기\컴퓨터 그래픽스 기초\실습\EX01\EX01\DOG2.CPP|C:\NB BACKUP\HOME\상명\2012년\2학기\컴퓨터 그래픽스 기초\실습\EX01\EX01\IMAGE.CPP|C:\NB BACKUP\HOME\상명\2012년\2학기\컴퓨터 그래픽스 기초\실습\EX01\EX01\MAIN.CPP
C:\NB BACKUP\HOME\상명\2012년\2학기\컴퓨터 그래픽스 기초\실습\EX01\EX01\DEBUG\BITMAP2.OBJ
^C:\NB BACKUP\HOME\상명\2012년\2학기\컴퓨터 그래픽스 기초\실습\EX01\EX01\BITMAP.CPP
C:\NB BACKUP\HOME\상명\2012년\2학기\컴퓨터 그래픽스 기초\실습\EX01\EX01\DEBUG\VC100.PDB
^C:\NB BACKUP\HOME\상명\2012년\2학기\컴퓨터 그래픽스 기초\실습\EX01\EX01\BITMAP2.CPP
C:\NB BACKUP\HOME\상명\2012년\2학기\컴퓨터 그래픽스 기초\실습\EX01\EX01\DEBUG\VC100.PDB
^C:\NB BACKUP\HOME\상명\2012년\2학기\컴퓨터 그래픽스 기초\실습\EX01\EX01\DOG2.CPP
C:\NB BACKUP\HOME\상명\2012년\2학기\컴퓨터 그래픽스 기초\실습\EX01\EX01\DEBUG\VC100.PDB
C:\NB BACKUP\HOME\상명\2012년\2학기\컴퓨터 그래픽스 기초\실습\EX01\EX01\DEBUG\DOG2.OBJ
^C:\NB BACKUP\HOME\상명\2012년\2학기\컴퓨터 그래픽스 기초\실습\EX01\EX01\IMAGE.CPP
C:\NB BACKUP\HOME\상명\2012년\2학기\컴퓨터 그래픽스 기초\실습\EX01\EX01\DEBUG\VC100.PDB
^C:\NB BACKUP\HOME\상명\2012년\2학기\컴퓨터 그래픽스 기초\실습\EX01\EX01\MAIN.CPP
C:\NB BACKUP\HOME\상명\2012년\2학기\컴퓨터 그래픽스 기초\실습\EX01\EX01\DEBUG\VC100.PDB
C:\NB BACKUP\HOME\상명\2012년\2학기\컴퓨터 그래픽스 기초\실습\EX01\EX01\DEBUG\MAIN.OBJ
^C:\NB BACKUP\HOME\상명\2012년\2학기\컴퓨터 그래픽스 기초\실습\EX01\EX01\BITMAP.CPP|C:\NB BACKUP\HOME\상명\2012년\2학기\컴퓨터 그래픽스 기초\실습\EX01\EX01\DOG2.CPP|C:\NB BACKUP\HOME\상명\2012년\2학기\컴퓨터 그래픽스 기초\실습\EX01\EX01\IMAGE.CPP|C:\NB BACKUP\HOME\상명\2012년\2학기\컴퓨터 그래픽스 기초\실습\EX01\EX01\MAIN.CPP
C:\NB BACKUP\HOME\상명\2012년\2학기\컴퓨터 그래픽스 기초\실습\EX01\EX01\DEBUG\BITMAP.OBJ
C:\NB BACKUP\HOME\상명\2012년\2학기\컴퓨터 그래픽스 기초\실습\EX01\EX01\DEBUG\DOG2.OBJ
C:\NB BACKUP\HOME\상명\2012년\2학기\컴퓨터 그래픽스 기초\실습\EX01\EX01\DEBUG\IMAGE.OBJ
C:\NB BACKUP\HOME\상명\2012년\2학기\컴퓨터 그래픽스 기초\실습\EX01\EX01\DEBUG\MAIN.OBJ
^C:\NB BACKUP\HOME\상명\2012년\2학기\컴퓨터 그래픽스 기초\실습\EX01\EX01\IMAGE.CPP|C:\NB BACKUP\HOME\상명\2012년\2학기\컴퓨터 그래픽스 기초\실습\EX01\EX01\MAIN.CPP
C:\NB BACKUP\HOME\상명\2012년\2학기\컴퓨터 그래픽스 기초\실습\EX01\EX01\DEBUG\IMAGE.OBJ
C:\NB BACKUP\HOME\상명\2012년\2학기\컴퓨터 그래픽스 기초\실습\EX01\EX01\DEBUG\MAIN.OBJ
^C:\NB BACKUP\HOME\상명\2012년\2학기\컴퓨터 그래픽스 기초\실습\EX01\EX01\DOG2.CPP|C:\NB BACKUP\HOME\상명\2012년\2학기\컴퓨터 그래픽스 기초\실습\EX01\EX01\MAIN.CPP
C:\NB BACKUP\HOME\상명\2012년\2학기\컴퓨터 그래픽스 기초\실습\EX01\EX01\DEBUG\DOG2.OBJ
C:\NB BACKUP\HOME\상명\2012년\2학기\컴퓨터 그래픽스 기초\실습\EX01\EX01\DEBUG\MAIN.OBJ
^C:\NB BACKUP\HOME\상명\2012년\2학기\컴퓨터 그래픽스 기초\실습\EX01\EX01\BITMAP.CPP|C:\NB BACKUP\HOME\상명\2012년\2학기\컴퓨터 그래픽스 기초\실습\EX01\EX01\IMAGE.CPP|C:\NB BACKUP\HOME\상명\2012년\2학기\컴퓨터 그래픽스 기초\실습\EX01\EX01\MAIN.CPP|C:\NB BACKUP\HOME\상명\2012년\2학기\컴퓨터 그래픽스 기초\실습\EX01\EX01\VECTORS.CPP
C:\NB BACKUP\HOME\상명\2012년\2학기\컴퓨터 그래픽스 기초\실습\EX01\EX01\DEBUG\VECTORS.OBJ
C:\NB BACKUP\HOME\상명\2012년\2학기\컴퓨터 그래픽스 기초\실습\EX01\EX01\DEBUG\BITMAP.OBJ
C:\NB BACKUP\HOME\상명\2012년\2학기\컴퓨터 그래픽스 기초\실습\EX01\EX01\DEBUG\IMAGE.OBJ
C:\NB BACKUP\HOME\상명\2012년\2학기\컴퓨터 그래픽스 기초\실습\EX01\EX01\DEBUG\MAIN.OBJ
^C:\NB BACKUP\HOME\상명\2012년\2학기\컴퓨터 그래픽스 기초\실습\EX01\EX01\VECTORS.CPP
C:\NB BACKUP\HOME\상명\2012년\2학기\컴퓨터 그래픽스 기초\실습\EX01\EX01\DEBUG\VC100.PDB
^C:\HOMESSD\상명\2012년\2학기\컴퓨터 그래픽스 기초\실습\EX01\EX01\BITMAP.CPP|C:\HOMESSD\상명\2012년\2학기\컴퓨터 그래픽스 기초\실습\EX01\EX01\BITMAP2.CPP|C:\HOMESSD\상명\2012년\2학기\컴퓨터 그래픽스 기초\실습\EX01\EX01\IMAGE.CPP|C:\HOMESSD\상명\2012년\2학기\컴퓨터 그래픽스 기초\실습\EX01\EX01\MAIN.CPP|C:\HOMESSD\상명\2012년\2학기\컴퓨터 그래픽스 기초\실습\EX01\EX01\VECTORS.CPP
C:\HOMESSD\상명\2012년\2학기\컴퓨터 그래픽스 기초\실습\EX01\EX01\DEBUG\BITMAP.OBJ
C:\HOMESSD\상명\2012년\2학기\컴퓨터 그래픽스 기초\실습\EX01\EX01\DEBUG\BITMAP2.OBJ
C:\HOMESSD\상명\2012년\2학기\컴퓨터 그래픽스 기초\실습\EX01\EX01\DEBUG\VECTORS.OBJ
C:\HOMESSD\상명\2012년\2학기\컴퓨터 그래픽스 기초\실습\EX01\EX01\DEBUG\IMAGE.OBJ
C:\HOMESSD\상명\2012년\2학기\컴퓨터 그래픽스 기초\실습\EX01\EX01\DEBUG\MAIN.OBJ
^C:\HOMESSD\상명\2012년\2학기\컴퓨터 그래픽스 기초\실습\EX01\EX01\BITMAP.CPP
C:\HOMESSD\상명\2012년\2학기\컴퓨터 그래픽스 기초\실습\EX01\EX01\DEBUG\VC100.PDB
^C:\HOMESSD\상명\2012년\2학기\컴퓨터 그래픽스 기초\실습\EX01\EX01\BITMAP2.CPP
C:\HOMESSD\상명\2012년\2학기\컴퓨터 그래픽스 기초\실습\EX01\EX01\DEBUG\VC100.PDB
^C:\HOMESSD\상명\2012년\2학기\컴퓨터 그래픽스 기초\실습\EX01\EX01\VECTORS.CPP
C:\HOMESSD\상명\2012년\2학기\컴퓨터 그래픽스 기초\실습\EX01\EX01\DEBUG\VC100.PDB
^C:\HOMESSD\상명\2012년\2학기\컴퓨터 그래픽스 기초\실습\EX01\EX01\IMAGE.CPP
C:\HOMESSD\상명\2012년\2학기\컴퓨터 그래픽스 기초\실습\EX01\EX01\DEBUG\VC100.PDB
^C:\HOMESSD\상명\2012년\2학기\컴퓨터 그래픽스 기초\실습\EX01\EX01\MAIN.CPP
C:\HOMESSD\상명\2012년\2학기\컴퓨터 그래픽스 기초\실습\EX01\EX01\DEBUG\VC100.PDB
^C:\USERS\P400\DESKTOP\EX01\EX01\BITMAP.CPP|C:\USERS\P400\DESKTOP\EX01\EX01\BITMAP2.CPP|C:\USERS\P400\DESKTOP\EX01\EX01\IMAGE.CPP|C:\USERS\P400\DESKTOP\EX01\EX01\MAIN.CPP|C:\USERS\P400\DESKTOP\EX01\EX01\VECTORS.CPP
C:\USERS\P400\DESKTOP\EX01\EX01\DEBUG\BITMAP.OBJ
C:\USERS\P400\DESKTOP\EX01\EX01\DEBUG\BITMAP2.OBJ
C:\USERS\P400\DESKTOP\EX01\EX01\DEBUG\VECTORS.OBJ
C:\USERS\P400\DESKTOP\EX01\EX01\DEBUG\IMAGE.OBJ
C:\USERS\P400\DESKTOP\EX01\EX01\DEBUG\MAIN.OBJ
^C:\USERS\P400\DESKTOP\EX01\EX01\BITMAP.CPP
C:\USERS\P400\DESKTOP\EX01\EX01\DEBUG\VC100.PDB
^C:\USERS\P400\DESKTOP\EX01\EX01\BITMAP2.CPP
C:\USERS\P400\DESKTOP\EX01\EX01\DEBUG\VC100.PDB
^C:\USERS\P400\DESKTOP\EX01\EX01\VECTORS.CPP
C:\USERS\P400\DESKTOP\EX01\EX01\DEBUG\VC100.PDB
^C:\USERS\P400\DESKTOP\EX01\EX01\IMAGE.CPP
C:\USERS\P400\DESKTOP\EX01\EX01\DEBUG\VC100.PDB
^C:\USERS\P400\DESKTOP\EX01\EX01\MAIN.CPP
C:\USERS\P400\DESKTOP\EX01\EX01\DEBUG\VC100.PDB
^C:\USERS\MEDIA\DESKTOP\EX01\EX01\EX01\BITMAP.CPP|C:\USERS\MEDIA\DESKTOP\EX01\EX01\EX01\BITMAP2.CPP|C:\USERS\MEDIA\DESKTOP\EX01\EX01\EX01\IMAGE.CPP|C:\USERS\MEDIA\DESKTOP\EX01\EX01\EX01\MAIN.CPP|C:\USERS\MEDIA\DESKTOP\EX01\EX01\EX01\VECTORS.CPP|C:\USERS\MEDIA\DESKTOP\EX01\EX01\EX01\VM.CPP
C:\USERS\MEDIA\DESKTOP\EX01\EX01\EX01\DEBUG\BITMAP.OBJ
C:\USERS\MEDIA\DESKTOP\EX01\EX01\EX01\DEBUG\BITMAP2.OBJ
C:\USERS\MEDIA\DESKTOP\EX01\EX01\EX01\DEBUG\VECTORS.OBJ
C:\USERS\MEDIA\DESKTOP\EX01\EX01\EX01\DEBUG\IMAGE.OBJ
^C:\USERS\MEDIA\DESKTOP\EX01\EX01\EX01\BITMAP.CPP
C:\USERS\MEDIA\DESKTOP\EX01\EX01\EX01\DEBUG\VC100.PDB
^C:\USERS\MEDIA\DESKTOP\EX01\EX01\EX01\BITMAP2.CPP
C:\USERS\MEDIA\DESKTOP\EX01\EX01\EX01\DEBUG\VC100.PDB
^C:\USERS\MEDIA\DESKTOP\EX01\EX01\EX01\VECTORS.CPP
C:\USERS\MEDIA\DESKTOP\EX01\EX01\EX01\DEBUG\VC100.PDB
^C:\USERS\MEDIA\DESKTOP\EX01\EX01\EX01\IMAGE.CPP
C:\USERS\MEDIA\DESKTOP\EX01\EX01\EX01\DEBUG\VC100.PDB
^C:\USERS\MEDIA\DESKTOP\EX01\EX01\EX01\MAIN.CPP
C:\USERS\MEDIA\DESKTOP\EX01\EX01\EX01\DEBUG\VC100.PDB
^C:\USERS\MEDIA\DESKTOP\EX01\EX01\EX01\VM.CPP
C:\USERS\MEDIA\DESKTOP\EX01\EX01\EX01\DEBUG\VC100.PDB
C:\USERS\MEDIA\DESKTOP\EX01\EX01\EX01\DEBUG\VM.OBJ
^C:\USERS\MEDIA\DESKTOP\EX01\EX01\EX01\MAIN.CPP|C:\USERS\MEDIA\DESKTOP\EX01\EX01\EX01\VM.CPP
C:\USERS\MEDIA\DESKTOP\EX01\EX01\EX01\DEBUG\VM.OBJ
C:\USERS\MEDIA\DESKTOP\EX01\EX01\EX01\DEBUG\MAIN.OBJ
^C:\USERS\MEDIA\DESKTOP\남래!_!\영상처리\EX01\EX01\EX01\BITMAP.CPP|C:\USERS\MEDIA\DESKTOP\남래!_!\영상처리\EX01\EX01\EX01\BITMAP2.CPP|C:\USERS\MEDIA\DESKTOP\남래!_!\영상처리\EX01\EX01\EX01\IMAGE.CPP|C:\USERS\MEDIA\DESKTOP\남래!_!\영상처리\EX01\EX01\EX01\MAIN.CPP|C:\USERS\MEDIA\DESKTOP\남래!_!\영상처리\EX01\EX01\EX01\VECTORS.CPP|C:\USERS\MEDIA\DESKTOP\남래!_!\영상처리\EX01\EX01\EX01\VM.CPP
C:\USERS\MEDIA\DESKTOP\남래!_!\영상처리\EX01\EX01\EX01\DEBUG\BITMAP.OBJ
C:\USERS\MEDIA\DESKTOP\남래!_!\영상처리\EX01\EX01\EX01\DEBUG\BITMAP2.OBJ
C:\USERS\MEDIA\DESKTOP\남래!_!\영상처리\EX01\EX01\EX01\DEBUG\VECTORS.OBJ
C:\USERS\MEDIA\DESKTOP\남래!_!\영상처리\EX01\EX01\EX01\DEBUG\IMAGE.OBJ
C:\USERS\MEDIA\DESKTOP\남래!_!\영상처리\EX01\EX01\EX01\DEBUG\MAIN.OBJ
C:\USERS\MEDIA\DESKTOP\남래!_!\영상처리\EX01\EX01\EX01\DEBUG\VM.OBJ
^C:\USERS\MEDIA\DESKTOP\남래!_!\영상처리\EX01\EX01\EX01\BITMAP.CPP
C:\USERS\MEDIA\DESKTOP\남래!_!\영상처리\EX01\EX01\EX01\DEBUG\VC100.PDB
^C:\USERS\MEDIA\DESKTOP\남래!_!\영상처리\EX01\EX01\EX01\BITMAP2.CPP
C:\USERS\MEDIA\DESKTOP\남래!_!\영상처리\EX01\EX01\EX01\DEBUG\VC100.PDB
^C:\USERS\MEDIA\DESKTOP\남래!_!\영상처리\EX01\EX01\EX01\VECTORS.CPP
C:\USERS\MEDIA\DESKTOP\남래!_!\영상처리\EX01\EX01\EX01\DEBUG\VC100.PDB
^C:\USERS\MEDIA\DESKTOP\남래!_!\영상처리\EX01\EX01\EX01\IMAGE.CPP
C:\USERS\MEDIA\DESKTOP\남래!_!\영상처리\EX01\EX01\EX01\DEBUG\VC100.PDB
C:\USERS\MEDIA\DESKTOP\남래!_!\영상처리\EX01\EX01\EX01\DEBUG\IMAGE.OBJ
^C:\USERS\MEDIA\DESKTOP\남래!_!\영상처리\EX01\EX01\EX01\MAIN.CPP
C:\USERS\MEDIA\DESKTOP\남래!_!\영상처리\EX01\EX01\EX01\DEBUG\VC100.PDB
C:\USERS\MEDIA\DESKTOP\남래!_!\영상처리\EX01\EX01\EX01\DEBUG\MAIN.OBJ
^C:\USERS\MEDIA\DESKTOP\남래!_!\영상처리\EX01\EX01\EX01\VM.CPP
C:\USERS\MEDIA\DESKTOP\남래!_!\영상처리\EX01\EX01\EX01\DEBUG\VC100.PDB
^C:\USERS\MEDIA\DESKTOP\남래!_!\영상처리\EX01\EX01\EX01\IMAGE.CPP|C:\USERS\MEDIA\DESKTOP\남래!_!\영상처리\EX01\EX01\EX01\MAIN.CPP|C:\USERS\MEDIA\DESKTOP\남래!_!\영상처리\EX01\EX01\EX01\VM.CPP
C:\USERS\MEDIA\DESKTOP\남래!_!\영상처리\EX01\EX01\EX01\DEBUG\IMAGE.OBJ
C:\USERS\MEDIA\DESKTOP\남래!_!\영상처리\EX01\EX01\EX01\DEBUG\VM.OBJ
C:\USERS\MEDIA\DESKTOP\남래!_!\영상처리\EX01\EX01\EX01\DEBUG\MAIN.OBJ
^C:\USERS\MEDIA\DESKTOP\남래!_!\영상처리\EX01\EX01\EX01\IMAGE.CPP|C:\USERS\MEDIA\DESKTOP\남래!_!\영상처리\EX01\EX01\EX01\MAIN.CPP
C:\USERS\MEDIA\DESKTOP\남래!_!\영상처리\EX01\EX01\EX01\DEBUG\IMAGE.OBJ
C:\USERS\MEDIA\DESKTOP\남래!_!\영상처리\EX01\EX01\EX01\DEBUG\MAIN.OBJ
^C:\USERS\MEDIA\DESKTOP\남래!_!\영상처리\EX01\EX01\EX01\IMAGE.CPP|C:\USERS\MEDIA\DESKTOP\남래!_!\영상처리\EX01\EX01\EX01\VM.CPP
C:\USERS\MEDIA\DESKTOP\남래!_!\영상처리\EX01\EX01\EX01\DEBUG\IMAGE.OBJ
C:\USERS\MEDIA\DESKTOP\남래!_!\영상처리\EX01\EX01\EX01\DEBUG\VM.OBJ
^C:\DOCUMENTS AND SETTINGS\MANAGER\바탕 화면\EX01\EX01\BITMAP.CPP|C:\DOCUMENTS AND SETTINGS\MANAGER\바탕 화면\EX01\EX01\BITMAP2.CPP|C:\DOCUMENTS AND SETTINGS\MANAGER\바탕 화면\EX01\EX01\IMAGE.CPP|C:\DOCUMENTS AND SETTINGS\MANAGER\바탕 화면\EX01\EX01\MAIN.CPP|C:\DOCUMENTS AND SETTINGS\MANAGER\바탕 화면\EX01\EX01\VECTORS.CPP|C:\DOCUMENTS AND SETTINGS\MANAGER\바탕 화면\EX01\EX01\VM.CPP
C:\DOCUMENTS AND SETTINGS\MANAGER\바탕 화면\EX01\EX01\DEBUG\BITMAP.OBJ
C:\DOCUMENTS AND SETTINGS\MANAGER\바탕 화면\EX01\EX01\DEBUG\BITMAP2.OBJ
C:\DOCUMENTS AND SETTINGS\MANAGER\바탕 화면\EX01\EX01\DEBUG\VECTORS.OBJ
C:\DOCUMENTS AND SETTINGS\MANAGER\바탕 화면\EX01\EX01\DEBUG\IMAGE.OBJ
C:\DOCUMENTS AND SETTINGS\MANAGER\바탕 화면\EX01\EX01\DEBUG\MAIN.OBJ
C:\DOCUMENTS AND SETTINGS\MANAGER\바탕 화면\EX01\EX01\DEBUG\VM.OBJ
^C:\DOCUMENTS AND SETTINGS\MANAGER\바탕 화면\EX01\EX01\BITMAP.CPP
C:\DOCUMENTS AND SETTINGS\MANAGER\바탕 화면\EX01\EX01\DEBUG\VC100.PDB
^C:\DOCUMENTS AND SETTINGS\MANAGER\바탕 화면\EX01\EX01\BITMAP2.CPP
C:\DOCUMENTS AND SETTINGS\MANAGER\바탕 화면\EX01\EX01\DEBUG\VC100.PDB
^C:\DOCUMENTS AND SETTINGS\MANAGER\바탕 화면\EX01\EX01\VECTORS.CPP
C:\DOCUMENTS AND SETTINGS\MANAGER\바탕 화면\EX01\EX01\DEBUG\VC100.PDB
^C:\DOCUMENTS AND SETTINGS\MANAGER\바탕 화면\EX01\EX01\IMAGE.CPP
C:\DOCUMENTS AND SETTINGS\MANAGER\바탕 화면\EX01\EX01\DEBUG\VC100.PDB
^C:\DOCUMENTS AND SETTINGS\MANAGER\바탕 화면\EX01\EX01\MAIN.CPP
C:\DOCUMENTS AND SETTINGS\MANAGER\바탕 화면\EX01\EX01\DEBUG\VC100.PDB
^C:\DOCUMENTS AND SETTINGS\MANAGER\바탕 화면\EX01\EX01\VM.CPP
C:\DOCUMENTS AND SETTINGS\MANAGER\바탕 화면\EX01\EX01\DEBUG\VC100.PDB
^J:\EX01\EX01\BITMAP.CPP|J:\EX01\EX01\BITMAP2.CPP|J:\EX01\EX01\IMAGE.CPP|J:\EX01\EX01\MAIN.CPP|J:\EX01\EX01\VECTORS.CPP|J:\EX01\EX01\VM.CPP
J:\EX01\EX01\DEBUG\BITMAP2.OBJ
J:\EX01\EX01\DEBUG\VM.OBJ
^J:\EX01\EX01\BITMAP.CPP
J:\EX01\EX01\DEBUG\VC100.PDB
^J:\EX01\EX01\BITMAP2.CPP
J:\EX01\EX01\DEBUG\VC100.PDB
^J:\EX01\EX01\VECTORS.CPP
J:\EX01\EX01\DEBUG\VC100.PDB
^J:\EX01\EX01\IMAGE.CPP
J:\EX01\EX01\DEBUG\VC100.PDB
^J:\EX01\EX01\MAIN.CPP
J:\EX01\EX01\DEBUG\VC100.PDB
^J:\EX01\EX01\VM.CPP
J:\EX01\EX01\DEBUG\VC100.PDB
^J:\EX01\EX01\BITMAP.CPP|J:\EX01\EX01\IMAGE.CPP|J:\EX01\EX01\MAIN.CPP|J:\EX01\EX01\VECTORS.CPP
^C:\USERS\P400\DESKTOP\EX01맨처음\EX01\BITMAP.CPP|C:\USERS\P400\DESKTOP\EX01맨처음\EX01\BITMAP2.CPP|C:\USERS\P400\DESKTOP\EX01맨처음\EX01\IMAGE.CPP|C:\USERS\P400\DESKTOP\EX01맨처음\EX01\MAIN.CPP|C:\USERS\P400\DESKTOP\EX01맨처음\EX01\VECTORS.CPP|C:\USERS\P400\DESKTOP\EX01맨처음\EX01\VM.CPP
C:\USERS\P400\DESKTOP\EX01맨처음\EX01\DEBUG\BITMAP.OBJ
C:\USERS\P400\DESKTOP\EX01맨처음\EX01\DEBUG\BITMAP2.OBJ
C:\USERS\P400\DESKTOP\EX01맨처음\EX01\DEBUG\VECTORS.OBJ
C:\USERS\P400\DESKTOP\EX01맨처음\EX01\DEBUG\IMAGE.OBJ
C:\USERS\P400\DESKTOP\EX01맨처음\EX01\DEBUG\MAIN.OBJ
C:\USERS\P400\DESKTOP\EX01맨처음\EX01\DEBUG\VM.OBJ
^C:\USERS\P400\DESKTOP\EX01맨처음\EX01\BITMAP.CPP
C:\USERS\P400\DESKTOP\EX01맨처음\EX01\DEBUG\VC100.PDB
^C:\USERS\P400\DESKTOP\EX01맨처음\EX01\BITMAP2.CPP
C:\USERS\P400\DESKTOP\EX01맨처음\EX01\DEBUG\VC100.PDB
^C:\USERS\P400\DESKTOP\EX01맨처음\EX01\VECTORS.CPP
C:\USERS\P400\DESKTOP\EX01맨처음\EX01\DEBUG\VC100.PDB
^C:\USERS\P400\DESKTOP\EX01맨처음\EX01\IMAGE.CPP
C:\USERS\P400\DESKTOP\EX01맨처음\EX01\DEBUG\VC100.PDB
C:\USERS\P400\DESKTOP\EX01맨처음\EX01\DEBUG\IMAGE.OBJ
^C:\USERS\P400\DESKTOP\EX01맨처음\EX01\MAIN.CPP
C:\USERS\P400\DESKTOP\EX01맨처음\EX01\DEBUG\VC100.PDB
C:\USERS\P400\DESKTOP\EX01맨처음\EX01\DEBUG\MAIN.OBJ
^C:\USERS\P400\DESKTOP\EX01맨처음\EX01\VM.CPP
C:\USERS\P400\DESKTOP\EX01맨처음\EX01\DEBUG\VC100.PDB
^C:\USERS\P400\DESKTOP\EX01맨처음\EX01\BITMAP.CPP|C:\USERS\P400\DESKTOP\EX01맨처음\EX01\IMAGE.CPP|C:\USERS\P400\DESKTOP\EX01맨처음\EX01\MAIN.CPP|C:\USERS\P400\DESKTOP\EX01맨처음\EX01\VECTORS.CPP
C:\USERS\P400\DESKTOP\EX01맨처음\EX01\DEBUG\MAIN.OBJ
C:\USERS\P400\DESKTOP\EX01맨처음\EX01\DEBUG\BITMAP.OBJ
C:\USERS\P400\DESKTOP\EX01맨처음\EX01\DEBUG\VECTORS.OBJ
^C:\USERS\P400\DESKTOP\EX01맨처음\EX01\IMAGE.CPP|C:\USERS\P400\DESKTOP\EX01맨처음\EX01\MAIN.CPP
C:\USERS\P400\DESKTOP\EX01맨처음\EX01\DEBUG\MAIN.OBJ
C:\USERS\P400\DESKTOP\EX01맨처음\EX01\DEBUG\IMAGE.OBJ
^C:\USERS\LEEHJ\DESKTOP\EX01다시다시시작\EX01\BITMAP.CPP|C:\USERS\LEEHJ\DESKTOP\EX01다시다시시작\EX01\BITMAP2.CPP|C:\USERS\LEEHJ\DESKTOP\EX01다시다시시작\EX01\IMAGE.CPP|C:\USERS\LEEHJ\DESKTOP\EX01다시다시시작\EX01\MAIN.CPP|C:\USERS\LEEHJ\DESKTOP\EX01다시다시시작\EX01\VECTORS.CPP|C:\USERS\LEEHJ\DESKTOP\EX01다시다시시작\EX01\VM.CPP
C:\USERS\LEEHJ\DESKTOP\EX01다시다시시작\EX01\DEBUG\BITMAP.OBJ
C:\USERS\LEEHJ\DESKTOP\EX01다시다시시작\EX01\DEBUG\BITMAP2.OBJ
C:\USERS\LEEHJ\DESKTOP\EX01다시다시시작\EX01\DEBUG\VECTORS.OBJ
C:\USERS\LEEHJ\DESKTOP\EX01다시다시시작\EX01\DEBUG\IMAGE.OBJ
C:\USERS\LEEHJ\DESKTOP\EX01다시다시시작\EX01\DEBUG\MAIN.OBJ
C:\USERS\LEEHJ\DESKTOP\EX01다시다시시작\EX01\DEBUG\VM.OBJ
^C:\USERS\LEEHJ\DESKTOP\EX01다시다시시작\EX01\BITMAP.CPP
C:\USERS\LEEHJ\DESKTOP\EX01다시다시시작\EX01\DEBUG\VC100.PDB
^C:\USERS\LEEHJ\DESKTOP\EX01다시다시시작\EX01\BITMAP2.CPP
C:\USERS\LEEHJ\DESKTOP\EX01다시다시시작\EX01\DEBUG\VC100.PDB
^C:\USERS\LEEHJ\DESKTOP\EX01다시다시시작\EX01\VECTORS.CPP
C:\USERS\LEEHJ\DESKTOP\EX01다시다시시작\EX01\DEBUG\VC100.PDB
^C:\USERS\LEEHJ\DESKTOP\EX01다시다시시작\EX01\IMAGE.CPP
C:\USERS\LEEHJ\DESKTOP\EX01다시다시시작\EX01\DEBUG\VC100.PDB
C:\USERS\LEEHJ\DESKTOP\EX01다시다시시작\EX01\DEBUG\IMAGE.OBJ
^C:\USERS\LEEHJ\DESKTOP\EX01다시다시시작\EX01\MAIN.CPP
C:\USERS\LEEHJ\DESKTOP\EX01다시다시시작\EX01\DEBUG\VC100.PDB
C:\USERS\LEEHJ\DESKTOP\EX01다시다시시작\EX01\DEBUG\MAIN.OBJ
^C:\USERS\LEEHJ\DESKTOP\EX01다시다시시작\EX01\VM.CPP
C:\USERS\LEEHJ\DESKTOP\EX01다시다시시작\EX01\DEBUG\VC100.PDB
^C:\USERS\LEEHJ\DESKTOP\EX01다시다시시작\EX01\IMAGE.CPP|C:\USERS\LEEHJ\DESKTOP\EX01다시다시시작\EX01\MAIN.CPP
C:\USERS\LEEHJ\DESKTOP\EX01다시다시시작\EX01\DEBUG\MAIN.OBJ
C:\USERS\LEEHJ\DESKTOP\EX01다시다시시작\EX01\DEBUG\IMAGE.OBJ
^C:\DOCUMENTS AND SETTINGS\MANAGER\바탕 화면\EX01다시다시시작\EX01\BITMAP.CPP|C:\DOCUMENTS AND SETTINGS\MANAGER\바탕 화면\EX01다시다시시작\EX01\BITMAP2.CPP|C:\DOCUMENTS AND SETTINGS\MANAGER\바탕 화면\EX01다시다시시작\EX01\IMAGE.CPP|C:\DOCUMENTS AND SETTINGS\MANAGER\바탕 화면\EX01다시다시시작\EX01\MAIN.CPP|C:\DOCUMENTS AND SETTINGS\MANAGER\바탕 화면\EX01다시다시시작\EX01\VECTORS.CPP|C:\DOCUMENTS AND SETTINGS\MANAGER\바탕 화면\EX01다시다시시작\EX01\VM.CPP
C:\DOCUMENTS AND SETTINGS\MANAGER\바탕 화면\EX01다시다시시작\EX01\DEBUG\BITMAP.OBJ
C:\DOCUMENTS AND SETTINGS\MANAGER\바탕 화면\EX01다시다시시작\EX01\DEBUG\BITMAP2.OBJ
C:\DOCUMENTS AND SETTINGS\MANAGER\바탕 화면\EX01다시다시시작\EX01\DEBUG\VECTORS.OBJ
C:\DOCUMENTS AND SETTINGS\MANAGER\바탕 화면\EX01다시다시시작\EX01\DEBUG\IMAGE.OBJ
C:\DOCUMENTS AND SETTINGS\MANAGER\바탕 화면\EX01다시다시시작\EX01\DEBUG\MAIN.OBJ
C:\DOCUMENTS AND SETTINGS\MANAGER\바탕 화면\EX01다시다시시작\EX01\DEBUG\VM.OBJ
^C:\DOCUMENTS AND SETTINGS\MANAGER\바탕 화면\EX01다시다시시작\EX01\BITMAP.CPP
C:\DOCUMENTS AND SETTINGS\MANAGER\바탕 화면\EX01다시다시시작\EX01\DEBUG\VC100.PDB
^C:\DOCUMENTS AND SETTINGS\MANAGER\바탕 화면\EX01다시다시시작\EX01\BITMAP2.CPP
C:\DOCUMENTS AND SETTINGS\MANAGER\바탕 화면\EX01다시다시시작\EX01\DEBUG\VC100.PDB
^C:\DOCUMENTS AND SETTINGS\MANAGER\바탕 화면\EX01다시다시시작\EX01\VECTORS.CPP
C:\DOCUMENTS AND SETTINGS\MANAGER\바탕 화면\EX01다시다시시작\EX01\DEBUG\VC100.PDB
^C:\DOCUMENTS AND SETTINGS\MANAGER\바탕 화면\EX01다시다시시작\EX01\IMAGE.CPP
C:\DOCUMENTS AND SETTINGS\MANAGER\바탕 화면\EX01다시다시시작\EX01\DEBUG\VC100.PDB
C:\DOCUMENTS AND SETTINGS\MANAGER\바탕 화면\EX01다시다시시작\EX01\DEBUG\IMAGE.OBJ
^C:\DOCUMENTS AND SETTINGS\MANAGER\바탕 화면\EX01다시다시시작\EX01\MAIN.CPP
C:\DOCUMENTS AND SETTINGS\MANAGER\바탕 화면\EX01다시다시시작\EX01\DEBUG\VC100.PDB
^C:\DOCUMENTS AND SETTINGS\MANAGER\바탕 화면\EX01다시다시시작\EX01\VM.CPP
C:\DOCUMENTS AND SETTINGS\MANAGER\바탕 화면\EX01다시다시시작\EX01\DEBUG\VC100.PDB
^C:\DOCUMENTS AND SETTINGS\MANAGER\바탕 화면\EX01다시다시시작\EX01\IMAGE.CPP|C:\DOCUMENTS AND SETTINGS\MANAGER\바탕 화면\EX01다시다시시작\EX01\MAIN.CPP
C:\DOCUMENTS AND SETTINGS\MANAGER\바탕 화면\EX01다시다시시작\EX01\DEBUG\IMAGE.OBJ
C:\DOCUMENTS AND SETTINGS\MANAGER\바탕 화면\EX01다시다시시작\EX01\DEBUG\MAIN.OBJ
^C:\DOCUMENTS AND SETTINGS\MANAGER\바탕 화면\EX01다시다시시작2\EX01\BITMAP.CPP|C:\DOCUMENTS AND SETTINGS\MANAGER\바탕 화면\EX01다시다시시작2\EX01\BITMAP2.CPP|C:\DOCUMENTS AND SETTINGS\MANAGER\바탕 화면\EX01다시다시시작2\EX01\IMAGE.CPP|C:\DOCUMENTS AND SETTINGS\MANAGER\바탕 화면\EX01다시다시시작2\EX01\MAIN.CPP|C:\DOCUMENTS AND SETTINGS\MANAGER\바탕 화면\EX01다시다시시작2\EX01\VECTORS.CPP|C:\DOCUMENTS AND SETTINGS\MANAGER\바탕 화면\EX01다시다시시작2\EX01\VM.CPP
C:\DOCUMENTS AND SETTINGS\MANAGER\바탕 화면\EX01다시다시시작2\EX01\DEBUG\BITMAP.OBJ
C:\DOCUMENTS AND SETTINGS\MANAGER\바탕 화면\EX01다시다시시작2\EX01\DEBUG\BITMAP2.OBJ
C:\DOCUMENTS AND SETTINGS\MANAGER\바탕 화면\EX01다시다시시작2\EX01\DEBUG\VECTORS.OBJ
C:\DOCUMENTS AND SETTINGS\MANAGER\바탕 화면\EX01다시다시시작2\EX01\DEBUG\IMAGE.OBJ
C:\DOCUMENTS AND SETTINGS\MANAGER\바탕 화면\EX01다시다시시작2\EX01\DEBUG\MAIN.OBJ
C:\DOCUMENTS AND SETTINGS\MANAGER\바탕 화면\EX01다시다시시작2\EX01\DEBUG\VM.OBJ
^C:\DOCUMENTS AND SETTINGS\MANAGER\바탕 화면\EX01다시다시시작2\EX01\BITMAP.CPP
C:\DOCUMENTS AND SETTINGS\MANAGER\바탕 화면\EX01다시다시시작2\EX01\DEBUG\VC100.PDB
^C:\DOCUMENTS AND SETTINGS\MANAGER\바탕 화면\EX01다시다시시작2\EX01\BITMAP2.CPP
C:\DOCUMENTS AND SETTINGS\MANAGER\바탕 화면\EX01다시다시시작2\EX01\DEBUG\VC100.PDB
^C:\DOCUMENTS AND SETTINGS\MANAGER\바탕 화면\EX01다시다시시작2\EX01\VECTORS.CPP
C:\DOCUMENTS AND SETTINGS\MANAGER\바탕 화면\EX01다시다시시작2\EX01\DEBUG\VC100.PDB
^C:\DOCUMENTS AND SETTINGS\MANAGER\바탕 화면\EX01다시다시시작2\EX01\IMAGE.CPP
C:\DOCUMENTS AND SETTINGS\MANAGER\바탕 화면\EX01다시다시시작2\EX01\DEBUG\VC100.PDB
C:\DOCUMENTS AND SETTINGS\MANAGER\바탕 화면\EX01다시다시시작2\EX01\DEBUG\IMAGE.OBJ
^C:\DOCUMENTS AND SETTINGS\MANAGER\바탕 화면\EX01다시다시시작2\EX01\MAIN.CPP
C:\DOCUMENTS AND SETTINGS\MANAGER\바탕 화면\EX01다시다시시작2\EX01\DEBUG\VC100.PDB
C:\DOCUMENTS AND SETTINGS\MANAGER\바탕 화면\EX01다시다시시작2\EX01\DEBUG\MAIN.OBJ
^C:\DOCUMENTS AND SETTINGS\MANAGER\바탕 화면\EX01다시다시시작2\EX01\VM.CPP
C:\DOCUMENTS AND SETTINGS\MANAGER\바탕 화면\EX01다시다시시작2\EX01\DEBUG\VC100.PDB
^C:\USERS\P400\DESKTOP\EX01다시다시시작2\EX01\BITMAP.CPP|C:\USERS\P400\DESKTOP\EX01다시다시시작2\EX01\BITMAP2.CPP|C:\USERS\P400\DESKTOP\EX01다시다시시작2\EX01\IMAGE.CPP|C:\USERS\P400\DESKTOP\EX01다시다시시작2\EX01\MAIN.CPP|C:\USERS\P400\DESKTOP\EX01다시다시시작2\EX01\VECTORS.CPP|C:\USERS\P400\DESKTOP\EX01다시다시시작2\EX01\VM.CPP
C:\USERS\P400\DESKTOP\EX01다시다시시작2\EX01\DEBUG\BITMAP.OBJ
C:\USERS\P400\DESKTOP\EX01다시다시시작2\EX01\DEBUG\BITMAP2.OBJ
C:\USERS\P400\DESKTOP\EX01다시다시시작2\EX01\DEBUG\VECTORS.OBJ
C:\USERS\P400\DESKTOP\EX01다시다시시작2\EX01\DEBUG\IMAGE.OBJ
C:\USERS\P400\DESKTOP\EX01다시다시시작2\EX01\DEBUG\MAIN.OBJ
C:\USERS\P400\DESKTOP\EX01다시다시시작2\EX01\DEBUG\VM.OBJ
^C:\USERS\P400\DESKTOP\EX01다시다시시작2\EX01\BITMAP.CPP
C:\USERS\P400\DESKTOP\EX01다시다시시작2\EX01\DEBUG\VC100.PDB
^C:\USERS\P400\DESKTOP\EX01다시다시시작2\EX01\BITMAP2.CPP
C:\USERS\P400\DESKTOP\EX01다시다시시작2\EX01\DEBUG\VC100.PDB
^C:\USERS\P400\DESKTOP\EX01다시다시시작2\EX01\VECTORS.CPP
C:\USERS\P400\DESKTOP\EX01다시다시시작2\EX01\DEBUG\VC100.PDB
^C:\USERS\P400\DESKTOP\EX01다시다시시작2\EX01\IMAGE.CPP
C:\USERS\P400\DESKTOP\EX01다시다시시작2\EX01\DEBUG\VC100.PDB
C:\USERS\P400\DESKTOP\EX01다시다시시작2\EX01\DEBUG\IMAGE.OBJ
^C:\USERS\P400\DESKTOP\EX01다시다시시작2\EX01\MAIN.CPP
C:\USERS\P400\DESKTOP\EX01다시다시시작2\EX01\DEBUG\VC100.PDB
C:\USERS\P400\DESKTOP\EX01다시다시시작2\EX01\DEBUG\MAIN.OBJ
^C:\USERS\P400\DESKTOP\EX01다시다시시작2\EX01\VM.CPP
C:\USERS\P400\DESKTOP\EX01다시다시시작2\EX01\DEBUG\VC100.PDB
^C:\USERS\P400\DESKTOP\EX01_1차배열로완성\EX01\BITMAP.CPP|C:\USERS\P400\DESKTOP\EX01_1차배열로완성\EX01\BITMAP2.CPP|C:\USERS\P400\DESKTOP\EX01_1차배열로완성\EX01\IMAGE.CPP|C:\USERS\P400\DESKTOP\EX01_1차배열로완성\EX01\MAIN.CPP|C:\USERS\P400\DESKTOP\EX01_1차배열로완성\EX01\VECTORS.CPP|C:\USERS\P400\DESKTOP\EX01_1차배열로완성\EX01\VM.CPP
C:\USERS\P400\DESKTOP\EX01_1차배열로완성\EX01\DEBUG\BITMAP.OBJ
C:\USERS\P400\DESKTOP\EX01_1차배열로완성\EX01\DEBUG\BITMAP2.OBJ
C:\USERS\P400\DESKTOP\EX01_1차배열로완성\EX01\DEBUG\VECTORS.OBJ
C:\USERS\P400\DESKTOP\EX01_1차배열로완성\EX01\DEBUG\IMAGE.OBJ
C:\USERS\P400\DESKTOP\EX01_1차배열로완성\EX01\DEBUG\MAIN.OBJ
C:\USERS\P400\DESKTOP\EX01_1차배열로완성\EX01\DEBUG\VM.OBJ
^C:\USERS\P400\DESKTOP\EX01_1차배열로완성\EX01\BITMAP.CPP
C:\USERS\P400\DESKTOP\EX01_1차배열로완성\EX01\DEBUG\VC100.PDB
^C:\USERS\P400\DESKTOP\EX01_1차배열로완성\EX01\BITMAP2.CPP
C:\USERS\P400\DESKTOP\EX01_1차배열로완성\EX01\DEBUG\VC100.PDB
^C:\USERS\P400\DESKTOP\EX01_1차배열로완성\EX01\VECTORS.CPP
C:\USERS\P400\DESKTOP\EX01_1차배열로완성\EX01\DEBUG\VC100.PDB
^C:\USERS\P400\DESKTOP\EX01_1차배열로완성\EX01\IMAGE.CPP
C:\USERS\P400\DESKTOP\EX01_1차배열로완성\EX01\DEBUG\VC100.PDB
^C:\USERS\P400\DESKTOP\EX01_1차배열로완성\EX01\MAIN.CPP
C:\USERS\P400\DESKTOP\EX01_1차배열로완성\EX01\DEBUG\VC100.PDB
^C:\USERS\P400\DESKTOP\EX01_1차배열로완성\EX01\VM.CPP
C:\USERS\P400\DESKTOP\EX01_1차배열로완성\EX01\DEBUG\VC100.PDB
^C:\USERS\SSO\DESKTOP\EX01_1차배열로완성\EX01\BITMAP.CPP|C:\USERS\SSO\DESKTOP\EX01_1차배열로완성\EX01\BITMAP2.CPP|C:\USERS\SSO\DESKTOP\EX01_1차배열로완성\EX01\IMAGE.CPP|C:\USERS\SSO\DESKTOP\EX01_1차배열로완성\EX01\MAIN.CPP|C:\USERS\SSO\DESKTOP\EX01_1차배열로완성\EX01\VECTORS.CPP|C:\USERS\SSO\DESKTOP\EX01_1차배열로완성\EX01\VM.CPP
C:\USERS\SSO\DESKTOP\EX01_1차배열로완성\EX01\DEBUG\BITMAP.OBJ
C:\USERS\SSO\DESKTOP\EX01_1차배열로완성\EX01\DEBUG\BITMAP2.OBJ
C:\USERS\SSO\DESKTOP\EX01_1차배열로완성\EX01\DEBUG\VECTORS.OBJ
C:\USERS\SSO\DESKTOP\EX01_1차배열로완성\EX01\DEBUG\IMAGE.OBJ
C:\USERS\SSO\DESKTOP\EX01_1차배열로완성\EX01\DEBUG\MAIN.OBJ
C:\USERS\SSO\DESKTOP\EX01_1차배열로완성\EX01\DEBUG\VM.OBJ
^C:\USERS\SSO\DESKTOP\EX01_1차배열로완성\EX01\BITMAP.CPP
C:\USERS\SSO\DESKTOP\EX01_1차배열로완성\EX01\DEBUG\VC100.PDB
^C:\USERS\SSO\DESKTOP\EX01_1차배열로완성\EX01\BITMAP2.CPP
C:\USERS\SSO\DESKTOP\EX01_1차배열로완성\EX01\DEBUG\VC100.PDB
^C:\USERS\SSO\DESKTOP\EX01_1차배열로완성\EX01\VECTORS.CPP
C:\USERS\SSO\DESKTOP\EX01_1차배열로완성\EX01\DEBUG\VC100.PDB
^C:\USERS\SSO\DESKTOP\EX01_1차배열로완성\EX01\IMAGE.CPP
C:\USERS\SSO\DESKTOP\EX01_1차배열로완성\EX01\DEBUG\VC100.PDB
C:\USERS\SSO\DESKTOP\EX01_1차배열로완성\EX01\DEBUG\IMAGE.OBJ
^C:\USERS\SSO\DESKTOP\EX01_1차배열로완성\EX01\MAIN.CPP
C:\USERS\SSO\DESKTOP\EX01_1차배열로완성\EX01\DEBUG\VC100.PDB
C:\USERS\SSO\DESKTOP\EX01_1차배열로완성\EX01\DEBUG\MAIN.OBJ
^C:\USERS\SSO\DESKTOP\EX01_1차배열로완성\EX01\VM.CPP
C:\USERS\SSO\DESKTOP\EX01_1차배열로완성\EX01\DEBUG\VC100.PDB
^C:\USERS\SSO\DESKTOP\EX01_1차배열로완성\EX01\IMAGE.CPP|C:\USERS\SSO\DESKTOP\EX01_1차배열로완성\EX01\MAIN.CPP
C:\USERS\SSO\DESKTOP\EX01_1차배열로완성\EX01\DEBUG\IMAGE.OBJ
C:\USERS\SSO\DESKTOP\EX01_1차배열로완성\EX01\DEBUG\MAIN.OBJ
^C:\USERS\SSO\DESKTOP\0827_방향\EX01\BITMAP.CPP|C:\USERS\SSO\DESKTOP\0827_방향\EX01\BITMAP2.CPP|C:\USERS\SSO\DESKTOP\0827_방향\EX01\IMAGE.CPP|C:\USERS\SSO\DESKTOP\0827_방향\EX01\MAIN.CPP|C:\USERS\SSO\DESKTOP\0827_방향\EX01\VECTORS.CPP|C:\USERS\SSO\DESKTOP\0827_방향\EX01\VM.CPP
C:\USERS\SSO\DESKTOP\0827_방향\EX01\DEBUG\BITMAP.OBJ
C:\USERS\SSO\DESKTOP\0827_방향\EX01\DEBUG\BITMAP2.OBJ
C:\USERS\SSO\DESKTOP\0827_방향\EX01\DEBUG\VECTORS.OBJ
C:\USERS\SSO\DESKTOP\0827_방향\EX01\DEBUG\IMAGE.OBJ
C:\USERS\SSO\DESKTOP\0827_방향\EX01\DEBUG\MAIN.OBJ
C:\USERS\SSO\DESKTOP\0827_방향\EX01\DEBUG\VM.OBJ
^C:\USERS\SSO\DESKTOP\0827_방향\EX01\BITMAP.CPP
C:\USERS\SSO\DESKTOP\0827_방향\EX01\DEBUG\VC100.PDB
^C:\USERS\SSO\DESKTOP\0827_방향\EX01\BITMAP2.CPP
C:\USERS\SSO\DESKTOP\0827_방향\EX01\DEBUG\VC100.PDB
^C:\USERS\SSO\DESKTOP\0827_방향\EX01\VECTORS.CPP
C:\USERS\SSO\DESKTOP\0827_방향\EX01\DEBUG\VC100.PDB
^C:\USERS\SSO\DESKTOP\0827_방향\EX01\IMAGE.CPP
C:\USERS\SSO\DESKTOP\0827_방향\EX01\DEBUG\VC100.PDB
^C:\USERS\SSO\DESKTOP\0827_방향\EX01\MAIN.CPP
C:\USERS\SSO\DESKTOP\0827_방향\EX01\DEBUG\VC100.PDB
^C:\USERS\SSO\DESKTOP\0827_방향\EX01\VM.CPP
C:\USERS\SSO\DESKTOP\0827_방향\EX01\DEBUG\VC100.PDB
^C:\USERS\그림\DESKTOP\0827_방향\EX01\BITMAP.CPP|C:\USERS\그림\DESKTOP\0827_방향\EX01\BITMAP2.CPP|C:\USERS\그림\DESKTOP\0827_방향\EX01\IMAGE.CPP|C:\USERS\그림\DESKTOP\0827_방향\EX01\MAIN.CPP|C:\USERS\그림\DESKTOP\0827_방향\EX01\VECTORS.CPP|C:\USERS\그림\DESKTOP\0827_방향\EX01\VM.CPP
C:\USERS\그림\DESKTOP\0827_방향\EX01\DEBUG\BITMAP.OBJ
C:\USERS\그림\DESKTOP\0827_방향\EX01\DEBUG\BITMAP2.OBJ
C:\USERS\그림\DESKTOP\0827_방향\EX01\DEBUG\VECTORS.OBJ
C:\USERS\그림\DESKTOP\0827_방향\EX01\DEBUG\IMAGE.OBJ
C:\USERS\그림\DESKTOP\0827_방향\EX01\DEBUG\MAIN.OBJ
C:\USERS\그림\DESKTOP\0827_방향\EX01\DEBUG\VM.OBJ
^C:\USERS\그림\DESKTOP\0827_방향\EX01\BITMAP.CPP
C:\USERS\그림\DESKTOP\0827_방향\EX01\DEBUG\VC100.PDB
^C:\USERS\그림\DESKTOP\0827_방향\EX01\BITMAP2.CPP
C:\USERS\그림\DESKTOP\0827_방향\EX01\DEBUG\VC100.PDB
^C:\USERS\그림\DESKTOP\0827_방향\EX01\VECTORS.CPP
C:\USERS\그림\DESKTOP\0827_방향\EX01\DEBUG\VC100.PDB
^C:\USERS\그림\DESKTOP\0827_방향\EX01\IMAGE.CPP
C:\USERS\그림\DESKTOP\0827_방향\EX01\DEBUG\VC100.PDB
C:\USERS\그림\DESKTOP\0827_방향\EX01\DEBUG\IMAGE.OBJ
^C:\USERS\그림\DESKTOP\0827_방향\EX01\MAIN.CPP
C:\USERS\그림\DESKTOP\0827_방향\EX01\DEBUG\VC100.PDB
C:\USERS\그림\DESKTOP\0827_방향\EX01\DEBUG\MAIN.OBJ
^C:\USERS\그림\DESKTOP\0827_방향\EX01\VM.CPP
C:\USERS\그림\DESKTOP\0827_방향\EX01\DEBUG\VC100.PDB
^C:\USERS\그림\DESKTOP\0827_방향\EX01\IMAGE.CPP|C:\USERS\그림\DESKTOP\0827_방향\EX01\MAIN.CPP
C:\USERS\그림\DESKTOP\0827_방향\EX01\DEBUG\MAIN.OBJ
^C:\USERS\그림\DESKTOP\원 안 SCALE\EX01\BITMAP.CPP|C:\USERS\그림\DESKTOP\원 안 SCALE\EX01\BITMAP2.CPP|C:\USERS\그림\DESKTOP\원 안 SCALE\EX01\IMAGE.CPP|C:\USERS\그림\DESKTOP\원 안 SCALE\EX01\MAIN.CPP|C:\USERS\그림\DESKTOP\원 안 SCALE\EX01\VECTORS.CPP|C:\USERS\그림\DESKTOP\원 안 SCALE\EX01\VM.CPP
C:\USERS\그림\DESKTOP\원 안 SCALE\EX01\DEBUG\BITMAP.OBJ
C:\USERS\그림\DESKTOP\원 안 SCALE\EX01\DEBUG\BITMAP2.OBJ
C:\USERS\그림\DESKTOP\원 안 SCALE\EX01\DEBUG\VECTORS.OBJ
C:\USERS\그림\DESKTOP\원 안 SCALE\EX01\DEBUG\IMAGE.OBJ
C:\USERS\그림\DESKTOP\원 안 SCALE\EX01\DEBUG\MAIN.OBJ
C:\USERS\그림\DESKTOP\원 안 SCALE\EX01\DEBUG\VM.OBJ
^C:\USERS\그림\DESKTOP\원 안 SCALE\EX01\BITMAP.CPP
C:\USERS\그림\DESKTOP\원 안 SCALE\EX01\DEBUG\VC100.PDB
^C:\USERS\그림\DESKTOP\원 안 SCALE\EX01\BITMAP2.CPP
C:\USERS\그림\DESKTOP\원 안 SCALE\EX01\DEBUG\VC100.PDB
^C:\USERS\그림\DESKTOP\원 안 SCALE\EX01\VECTORS.CPP
C:\USERS\그림\DESKTOP\원 안 SCALE\EX01\DEBUG\VC100.PDB
^C:\USERS\그림\DESKTOP\원 안 SCALE\EX01\IMAGE.CPP
C:\USERS\그림\DESKTOP\원 안 SCALE\EX01\DEBUG\VC100.PDB
^C:\USERS\그림\DESKTOP\원 안 SCALE\EX01\MAIN.CPP
C:\USERS\그림\DESKTOP\원 안 SCALE\EX01\DEBUG\VC100.PDB
^C:\USERS\그림\DESKTOP\원 안 SCALE\EX01\VM.CPP
C:\USERS\그림\DESKTOP\원 안 SCALE\EX01\DEBUG\VC100.PDB
^C:\USERS\LEEHJ\DOCUMENTS\졸프\졸프_LAB바꾸기\EX01\BITMAP.CPP|C:\USERS\LEEHJ\DOCUMENTS\졸프\졸프_LAB바꾸기\EX01\BITMAP2.CPP|C:\USERS\LEEHJ\DOCUMENTS\졸프\졸프_LAB바꾸기\EX01\IMAGE.CPP|C:\USERS\LEEHJ\DOCUMENTS\졸프\졸프_LAB바꾸기\EX01\MAIN.CPP|C:\USERS\LEEHJ\DOCUMENTS\졸프\졸프_LAB바꾸기\EX01\VECTORS.CPP|C:\USERS\LEEHJ\DOCUMENTS\졸프\졸프_LAB바꾸기\EX01\VM.CPP
C:\USERS\LEEHJ\DOCUMENTS\졸프\졸프_LAB바꾸기\EX01\DEBUG\BITMAP.OBJ
C:\USERS\LEEHJ\DOCUMENTS\졸프\졸프_LAB바꾸기\EX01\DEBUG\BITMAP2.OBJ
C:\USERS\LEEHJ\DOCUMENTS\졸프\졸프_LAB바꾸기\EX01\DEBUG\VECTORS.OBJ
C:\USERS\LEEHJ\DOCUMENTS\졸프\졸프_LAB바꾸기\EX01\DEBUG\IMAGE.OBJ
C:\USERS\LEEHJ\DOCUMENTS\졸프\졸프_LAB바꾸기\EX01\DEBUG\MAIN.OBJ
C:\USERS\LEEHJ\DOCUMENTS\졸프\졸프_LAB바꾸기\EX01\DEBUG\VM.OBJ
^C:\USERS\LEEHJ\DOCUMENTS\졸프\졸프_LAB바꾸기\EX01\BITMAP.CPP
C:\USERS\LEEHJ\DOCUMENTS\졸프\졸프_LAB바꾸기\EX01\DEBUG\VC100.PDB
^C:\USERS\LEEHJ\DOCUMENTS\졸프\졸프_LAB바꾸기\EX01\BITMAP2.CPP
C:\USERS\LEEHJ\DOCUMENTS\졸프\졸프_LAB바꾸기\EX01\DEBUG\VC100.PDB
^C:\USERS\LEEHJ\DOCUMENTS\졸프\졸프_LAB바꾸기\EX01\VECTORS.CPP
C:\USERS\LEEHJ\DOCUMENTS\졸프\졸프_LAB바꾸기\EX01\DEBUG\VC100.PDB
^C:\USERS\LEEHJ\DOCUMENTS\졸프\졸프_LAB바꾸기\EX01\IMAGE.CPP
C:\USERS\LEEHJ\DOCUMENTS\졸프\졸프_LAB바꾸기\EX01\DEBUG\VC100.PDB
^C:\USERS\LEEHJ\DOCUMENTS\졸프\졸프_LAB바꾸기\EX01\MAIN.CPP
C:\USERS\LEEHJ\DOCUMENTS\졸프\졸프_LAB바꾸기\EX01\DEBUG\VC100.PDB
C:\USERS\LEEHJ\DOCUMENTS\졸프\졸프_LAB바꾸기\EX01\DEBUG\MAIN.OBJ
^C:\USERS\LEEHJ\DOCUMENTS\졸프\졸프_LAB바꾸기\EX01\VM.CPP
C:\USERS\LEEHJ\DOCUMENTS\졸프\졸프_LAB바꾸기\EX01\DEBUG\VC100.PDB
^C:\USERS\LEEHJ\DOCUMENTS\졸프\1123독일국기-이효진\EX01\BITMAP.CPP|C:\USERS\LEEHJ\DOCUMENTS\졸프\1123독일국기-이효진\EX01\BITMAP2.CPP|C:\USERS\LEEHJ\DOCUMENTS\졸프\1123독일국기-이효진\EX01\IMAGE.CPP|C:\USERS\LEEHJ\DOCUMENTS\졸프\1123독일국기-이효진\EX01\MAIN.CPP|C:\USERS\LEEHJ\DOCUMENTS\졸프\1123독일국기-이효진\EX01\VECTORS.CPP|C:\USERS\LEEHJ\DOCUMENTS\졸프\1123독일국기-이효진\EX01\VM.CPP
C:\USERS\LEEHJ\DOCUMENTS\졸프\1123독일국기-이효진\EX01\DEBUG\BITMAP.OBJ
C:\USERS\LEEHJ\DOCUMENTS\졸프\1123독일국기-이효진\EX01\DEBUG\BITMAP2.OBJ
C:\USERS\LEEHJ\DOCUMENTS\졸프\1123독일국기-이효진\EX01\DEBUG\VECTORS.OBJ
C:\USERS\LEEHJ\DOCUMENTS\졸프\1123독일국기-이효진\EX01\DEBUG\IMAGE.OBJ
C:\USERS\LEEHJ\DOCUMENTS\졸프\1123독일국기-이효진\EX01\DEBUG\MAIN.OBJ
C:\USERS\LEEHJ\DOCUMENTS\졸프\1123독일국기-이효진\EX01\DEBUG\VM.OBJ
^C:\USERS\LEEHJ\DOCUMENTS\졸프\1123독일국기-이효진\EX01\BITMAP.CPP
C:\USERS\LEEHJ\DOCUMENTS\졸프\1123독일국기-이효진\EX01\DEBUG\VC100.PDB
^C:\USERS\LEEHJ\DOCUMENTS\졸프\1123독일국기-이효진\EX01\BITMAP2.CPP
C:\USERS\LEEHJ\DOCUMENTS\졸프\1123독일국기-이효진\EX01\DEBUG\VC100.PDB
^C:\USERS\LEEHJ\DOCUMENTS\졸프\1123독일국기-이효진\EX01\VECTORS.CPP
C:\USERS\LEEHJ\DOCUMENTS\졸프\1123독일국기-이효진\EX01\DEBUG\VC100.PDB
^C:\USERS\LEEHJ\DOCUMENTS\졸프\1123독일국기-이효진\EX01\IMAGE.CPP
C:\USERS\LEEHJ\DOCUMENTS\졸프\1123독일국기-이효진\EX01\DEBUG\VC100.PDB
^C:\USERS\LEEHJ\DOCUMENTS\졸프\1123독일국기-이효진\EX01\MAIN.CPP
C:\USERS\LEEHJ\DOCUMENTS\졸프\1123독일국기-이효진\EX01\DEBUG\VC100.PDB
C:\USERS\LEEHJ\DOCUMENTS\졸프\1123독일국기-이효진\EX01\DEBUG\MAIN.OBJ
^C:\USERS\LEEHJ\DOCUMENTS\졸프\1123독일국기-이효진\EX01\VM.CPP
C:\USERS\LEEHJ\DOCUMENTS\졸프\1123독일국기-이효진\EX01\DEBUG\VC100.PDB
^C:\USERS\LEEHJ\DOCUMENTS\졸프\1123독일국기-이효진\EX01\IMAGE.CPP|C:\USERS\LEEHJ\DOCUMENTS\졸프\1123독일국기-이효진\EX01\MAIN.CPP
C:\USERS\LEEHJ\DOCUMENTS\졸프\1123독일국기-이효진\EX01\DEBUG\MAIN.OBJ
C:\USERS\LEEHJ\DOCUMENTS\졸프\1123독일국기-이효진\EX01\DEBUG\IMAGE.OBJ
