^C:\NB BACKUP\HOME\상명\2012년\2학기\컴퓨터 그래픽스 기초\실습\EX01\EX01\DEBUG\EX01.EXE.INTERMEDIATE.MANIFEST
/nologo /verbose /out:"Debug\Ex01.exe.embed.manifest" /manifest Debug\Ex01.exe.intermediate.manifest
^C:\HOMESSD\상명\2012년\2학기\컴퓨터 그래픽스 기초\실습\EX01\EX01\DEBUG\EX01.EXE.INTERMEDIATE.MANIFEST
/nologo /verbose /out:"Debug\Ex01.exe.embed.manifest" /manifest Debug\Ex01.exe.intermediate.manifest
^C:\USERS\P400\DESKTOP\EX01\EX01\DEBUG\EX01.EXE.INTERMEDIATE.MANIFEST
/nologo /verbose /out:"Debug\Ex01.exe.embed.manifest" /manifest Debug\Ex01.exe.intermediate.manifest
^C:\USERS\MEDIA\DESKTOP\EX01\EX01\EX01\DEBUG\EX01.EXE.INTERMEDIATE.MANIFEST
/nologo /verbose /out:"Debug\Ex01.exe.embed.manifest" /manifest Debug\Ex01.exe.intermediate.manifest
^C:\USERS\MEDIA\DESKTOP\남래!_!\영상처리\EX01\EX01\EX01\DEBUG\EX01.EXE.INTERMEDIATE.MANIFEST
/nologo /verbose /out:"Debug\Ex01.exe.embed.manifest" /manifest Debug\Ex01.exe.intermediate.manifest
^C:\DOCUMENTS AND SETTINGS\MANAGER\바탕 화면\EX01\EX01\DEBUG\EX01.EXE.INTERMEDIATE.MANIFEST
/nologo /verbose /out:"Debug\Ex01.exe.embed.manifest" /manifest Debug\Ex01.exe.intermediate.manifest
^C:\USERS\P400\DESKTOP\EX01맨처음\EX01\DEBUG\EX01.EXE.INTERMEDIATE.MANIFEST
/nologo /verbose /out:"Debug\Ex01.exe.embed.manifest" /manifest Debug\Ex01.exe.intermediate.manifest
^C:\USERS\LEEHJ\DESKTOP\EX01다시다시시작\EX01\DEBUG\EX01.EXE.INTERMEDIATE.MANIFEST
/nologo /verbose /out:"Debug\Ex01.exe.embed.manifest" /manifest Debug\Ex01.exe.intermediate.manifest
^C:\DOCUMENTS AND SETTINGS\MANAGER\바탕 화면\EX01다시다시시작\EX01\DEBUG\EX01.EXE.INTERMEDIATE.MANIFEST
/nologo /verbose /out:"Debug\Ex01.exe.embed.manifest" /manifest Debug\Ex01.exe.intermediate.manifest
^C:\DOCUMENTS AND SETTINGS\MANAGER\바탕 화면\EX01다시다시시작2\EX01\DEBUG\EX01.EXE.INTERMEDIATE.MANIFEST
/nologo /verbose /out:"Debug\Ex01.exe.embed.manifest" /manifest Debug\Ex01.exe.intermediate.manifest
^C:\USERS\P400\DESKTOP\EX01다시다시시작2\EX01\DEBUG\EX01.EXE.INTERMEDIATE.MANIFEST
/nologo /verbose /out:"Debug\Ex01.exe.embed.manifest" /manifest Debug\Ex01.exe.intermediate.manifest
^C:\USERS\P400\DESKTOP\EX01_1차배열로완성\EX01\DEBUG\EX01.EXE.INTERMEDIATE.MANIFEST
/nologo /verbose /out:"Debug\Ex01.exe.embed.manifest" /manifest Debug\Ex01.exe.intermediate.manifest
^C:\USERS\SSO\DESKTOP\EX01_1차배열로완성\EX01\DEBUG\EX01.EXE.INTERMEDIATE.MANIFEST
/nologo /verbose /out:"Debug\Ex01.exe.embed.manifest" /manifest Debug\Ex01.exe.intermediate.manifest
^C:\USERS\SSO\DESKTOP\0827_방향\EX01\DEBUG\EX01.EXE.INTERMEDIATE.MANIFEST
/nologo /verbose /out:"Debug\Ex01.exe.embed.manifest" /manifest Debug\Ex01.exe.intermediate.manifest
^C:\USERS\그림\DESKTOP\0827_방향\EX01\DEBUG\EX01.EXE.INTERMEDIATE.MANIFEST
/nologo /verbose /out:"Debug\Ex01.exe.embed.manifest" /manifest Debug\Ex01.exe.intermediate.manifest
^C:\USERS\그림\DESKTOP\원 안 SCALE\EX01\DEBUG\EX01.EXE.INTERMEDIATE.MANIFEST
/nologo /verbose /out:"Debug\Ex01.exe.embed.manifest" /manifest Debug\Ex01.exe.intermediate.manifest
^C:\USERS\LEEHJ\DOCUMENTS\졸프\졸프_LAB바꾸기\EX01\DEBUG\EX01.EXE.INTERMEDIATE.MANIFEST
/nologo /verbose /out:"Debug\Ex01.exe.embed.manifest" /manifest Debug\Ex01.exe.intermediate.manifest
^C:\USERS\LEEHJ\DOCUMENTS\졸프\1123독일국기-이효진\EX01\DEBUG\EX01.EXE.INTERMEDIATE.MANIFEST
/nologo /verbose /out:"Debug\Ex01.exe.embed.manifest" /manifest Debug\Ex01.exe.intermediate.manifest
